{
    "messages" : {
        "properties" : {
          "attachment_contentType" : {
            "type" : "text",
            "fields" : {
              "keyword" : {
                "type" : "keyword",
                "ignore_above" : 256
              }
            }
          },
          "attachment_hashedName" : {
            "type" : "text",
            "fields" : {
              "keyword" : {
                "type" : "keyword",
                "ignore_above" : 256
              }
            }
          },
          "attachment_originalName" : {
            "type" : "text",
            "analyzer": "autocomplete"
          },
          "attachment_size" : {
            "type" : "long"
          },
          "conversation_id" : {
            "type" : "long"
          },
          "consecutive" : {
            "type" : "long"
          },
          "indexName" : {
            "type" : "text",
            "fields" : {
              "keyword" : {
                "type" : "keyword",
                "ignore_above" : 256
              }
            }
          },
          "job" : {
              "properties" : {
                    "jobid" : {
                        "type" : "long"                    
                    },
                    "name" : {
                        "type" : "text"                    
                    },
                    "description" : {
                        "type" : "text"                    
                    },
                    "amount" : {
                        "type" : "float"                    
                    },
                    "due_date" : {
                        "type" : "date"                    
                    }
              }  
          },
          "message" : {
            "type" : "text",
            "analyzer" : "autocomplete"
          },
          "sender_id" : {
            "type" : "long"
          },
          "sender_name" : {
            "type" : "text",
            "fields" : {
              "keyword" : {
                "type" : "keyword",
                "ignore_above" : 256
              }
            }
          },
          "sent" : {
            "type" : "long"
          },
          "typeName" : {
            "type" : "text",
            "fields" : {
              "keyword" : {
                "type" : "keyword",
                "ignore_above" : 256
              }
            }
          }
        }
      }
}
