{
    "experts" : {
        "properties" : {
          "availabilityEnd" : {
            "type" : "long"
          },
          "availabilityStart" : {
            "type" : "long"
          },
          "availableHoursPerWeek" : {
            "type" : "float"
          },
          "country" : {
            "type" : "text",
            "analyzer" : "keyword"
          },
          "created" : {
            "type" : "long"
          },
          "hourlyRate" : {
            "type" : "float"
          },
          "id" : {
            "type" : "text",
            "fields" : {
              "keyword" : {
                "type" : "keyword",
                "ignore_above" : 256
              }
            }
          },
          "indexName" : {
            "type" : "text",
            "fields" : {
              "keyword" : {
                "type" : "keyword",
                "ignore_above" : 256
              }
            }
          },
          "jobSuccess" : {
            "type" : "float"
          },
          "jobs" : {
            "type" : "long"
          },
          "lastYearEarnings" : {
            "type" : "float"
          },
          "lifetimeEarnings" : {
            "type" : "float"
          },
          "name" : {
            "type" : "text",
            "analyzer" : "autocomplete"
          },
          "place" : {
            "properties" : {
              "altnames" : {
                "properties" : {
                  "id" : {
                    "type" : "long"
                  },
                  "name" : {
                    "type" : "text",
                    "analyzer" : "autocomplete"
                  }
                }
              },
              "id" : {
                "type" : "long"
              },
              "location" : {
                "type" : "geo_point"
              },
              "name" : {
                "type" : "text",
                "analyzer" : "autocomplete"
              },
              "type" : {
                "type" : "text",
                "fields" : {
                  "keyword" : {
                    "type" : "keyword",
                    "ignore_above" : 256
                  }
                }
              }
            }
          },
          "points" : {
            "type" : "long"
          },
          "skills" : {
            "properties" : {
              "id" : {
                "type" : "long"
              },
              "jobs" : {
                "type" : "long"
              },
              "name" : {
                "type" : "text",
                "analyzer" : "autocomplete"
              },
              "rating" : {
                "type" : "float"
              },
              "type" : {
                "type" : "text",
                "analyzer" : "autocomplete"
              },
              "type_id" : {
                "type" : "long"
              }
            }
          },
          "typeName" : {
            "type" : "text",
            "fields" : {
              "keyword" : {
                "type" : "keyword",
                "ignore_above" : 256
              }
            }
          },
          "updated" : {
            "type" : "long"
          }
        }
      }
}
